<?xml version="1.0" encoding="UTF-8"?>
<!-- $Id: TlogConfig.xml 165 2012-07-26 17:06:27Z suz.sxie $ -->
<LogDefinitions xmlns:xsi="http://www.w3.org/2001/XMLSchema-instance" xsi:noNamespaceSchemaLocation="LogConfig.xsd">

</LogDefinitions>
