<?xml version="1.0" encoding="UTF-8"?>
<!-- $Id: files.xml 192 2012-07-31 14:19:14Z suz.sxie $ -->
<LogDefinitions xmlns:xsi="http://www.w3.org/2001/XMLSchema-instance"
                xsi:noNamespaceSchemaLocation="LogConfig.xsd">

  <LogFiles>

    <LogFile id="BAGS">
      <Destination class="dtv.logbuilder.writers.LogEntryFileWriter">
        <Parameter name="file_path" value="${user.dir}/log/bags.xml" />
        <Parameter name="file_per_object" value="false" />
        <Parameter name="training_file_path" value="${user.dir}/log/training/bags.xml" />
      </Destination>
      <Header dtype="String"><![CDATA[<?xml version="1.0" encoding="UTF-8"?>
<DepositBags xmlns="http://www.nrf-arts.org/IXRetail/namespace/"
                xmlns:dtv="http://www.datavantagecorp.com/xstore/"
                xmlns:xs="http://www.w3.org/2001/XMLSchema-instance"
                schemaLocation="http://www.nrf-arts.org/IXRetail/namespace/ DepositBags.xsd"
                dtv:schemaLocation="http://www.datavantagecorp.com/xstore/ DepositBags.xsd">]]></Header>
      <Footer dtype="String"><![CDATA[</DepositBags>]]></Footer>
    </LogFile>
  </LogFiles>
</LogDefinitions>
